Categories:Writing,System
License:GPL-3.0-only
Web Site:
Source Code:https://github.com/billthefarmer/editor
Issue Tracker:https://github.com/billthefarmer/editor/issues
Changelog:https://github.com/billthefarmer/editor/releases

Auto Name:Editor
Summary:Simple generic text editor
Description:
This is a very simple generic text editor which may be used standalone or to
show or edit any sort of text file from another app. If you select a text file
in a file manager or similar app you will be offered the option of using this
editor along with whatever other apps you have installed that can show or edit a
text file. Files will initially be opened read only, long touch on the display
or touch the edit item in the toolbar to enable editing.

''Editor'' a.o. offers:

* View markdown in browser or html viewer
* AutoSave
* Word wrap
* Light/Dark/Retro themes
* Small/Medium/Large font size
* Monospace/Proportional font faces
.

Repo Type:git
Repo:https://github.com/billthefarmer/editor

Build:1.0,1
    commit=v1.0
    gradle=yes

Build:1.01,101
    commit=v1.01
    gradle=yes

Build:1.02,102
    commit=v1.02
    gradle=yes

Build:1.03,103
    commit=v1.03
    gradle=yes

Build:1.04,104
    commit=v1.04
    gradle=yes

Build:1.05,105
    commit=v1.05
    gradle=yes

Build:1.06,106
    commit=v1.06
    gradle=yes

Build:1.07,107
    commit=v1.07
    gradle=yes

Build:1.08,108
    commit=v1.08
    gradle=yes

Build:1.09,109
    commit=v1.09
    gradle=yes

Build:1.10,110
    commit=v1.10
    gradle=yes

Build:1.11,111
    commit=v1.11
    gradle=yes

Build:1.12,112
    commit=v1.12
    gradle=yes

Build:1.13,113
    commit=v1.13
    gradle=yes

Build:1.14,114
    commit=v1.14
    gradle=yes

Build:1.15,115
    commit=v1.15
    gradle=yes

Build:1.16,116
    commit=v1.16
    gradle=yes

Build:1.17,117
    commit=v1.17
    gradle=yes

Build:1.18,118
    commit=v1.18
    gradle=yes

Build:1.19,119
    commit=v1.19
    gradle=yes

Build:1.20,120
    commit=v1.20
    gradle=yes

Build:1.21,121
    commit=v1.21
    gradle=yes

Build:1.22,122
    commit=v1.22
    gradle=yes

Build:1.23,123
    commit=v1.23
    gradle=yes

Build:1.24,124
    commit=v1.24
    gradle=yes

Build:1.25,125
    commit=v1.25
    gradle=yes

Build:1.26,126
    commit=v1.26
    gradle=yes

Build:1.27,127
    commit=v1.27
    gradle=yes

Build:1.28,128
    commit=v1.28
    gradle=yes

Build:1.29,129
    commit=v1.29
    gradle=yes

Build:1.30,130
    commit=v1.30
    gradle=yes

Build:1.31,131
    commit=v1.31
    gradle=yes

Build:1.32,132
    commit=v1.32
    gradle=yes

Build:1.33,133
    commit=v1.33
    gradle=yes

Build:1.34,134
    commit=v1.34
    gradle=yes

Build:1.35,135
    commit=v1.35
    gradle=yes

Auto Update Mode:Version v%v
Update Check Mode:Tags
Current Version:1.35
Current Version Code:135
